module gitlab.com/pschlump/qr-decode

go 1.17

require github.com/makiuchi-d/gozxing v0.0.2

require (
	golang.org/x/text v0.3.5 // indirect
	golang.org/x/xerrors v0.0.0-20200804184101-5ec99f83aff1 // indirect
)
